Design Route Status
                                               :      # nets :
   ------------------------------------------- : ----------- :
   # of logical nets.......................... :        5923 :
       # of nets not needing routing.......... :        2025 :
           # of internally routed nets........ :        1964 :
           # of nets with no loads............ :          61 :
       # of routable nets..................... :        3898 :
           # of fully routed nets............. :        3898 :
       # of nets with routing errors.......... :           0 :
   ------------------------------------------- : ----------- :

